%YAML 1.1
%TAG !u! tag:unity3d.com,2011:
--- !u!1 &1198295429500141289
GameObject:
  m_ObjectHideFlags: 0
  m_CorrespondingSourceObject: {fileID: 0}
  m_PrefabInstance: {fileID: 0}
  m_PrefabAsset: {fileID: 0}
  serializedVersion: 6
  m_Component:
  - component: {fileID: 6500712852029251972}
  - component: {fileID: 1560489228918616004}
  m_Layer: 0
  m_Name: CustomFace
  m_TagString: Untagged
  m_Icon: {fileID: 0}
  m_NavMeshLayer: 0
  m_StaticEditorFlags: 0
  m_IsActive: 1
--- !u!4 &6500712852029251972
Transform:
  m_ObjectHideFlags: 0
  m_CorrespondingSourceObject: {fileID: 0}
  m_PrefabInstance: {fileID: 0}
  m_PrefabAsset: {fileID: 0}
  m_GameObject: {fileID: 1198295429500141289}
  m_LocalRotation: {x: 0, y: 0, z: 0, w: 1}
  m_LocalPosition: {x: -279.8226, y: 994.4737, z: -784.5832}
  m_LocalScale: {x: 1, y: 1, z: 1}
  m_Children: []
  m_Father: {fileID: 0}
  m_RootOrder: 0
  m_LocalEulerAnglesHint: {x: 0, y: 0, z: 0}
--- !u!114 &1560489228918616004
MonoBehaviour:
  m_ObjectHideFlags: 0
  m_CorrespondingSourceObject: {fileID: 0}
  m_PrefabInstance: {fileID: 0}
  m_PrefabAsset: {fileID: 0}
  m_GameObject: {fileID: 1198295429500141289}
  m_Enabled: 1
  m_EditorHideFlags: 0
  m_Script: {fileID: 11500000, guid: 82ffb351a2f727744b1f741157f198cf, type: 3}
  m_Name: 
  m_EditorClassIdentifier: 
  faceMaterial: {fileID: 2100000, guid: 80c348bc574de484b96bc7f6fe34c9df, type: 2}
  leftEyeObject: {fileID: 832344427499780523, guid: 05f40a72fdb4a154d888310db1ed8dba,
    type: 3}
  rightEyeObject: {fileID: 832344427499780523, guid: 05f40a72fdb4a154d888310db1ed8dba,
    type: 3}
  noseObject: {fileID: 0}
